{
  "project_info": {
    "project_number": "254759501147",
    "firebase_url": "https://kisaanwebandappdevelopment.firebaseio.com",
    "project_id": "kisaanwebandappdevelopment",
    "storage_bucket": "kisaanwebandappdevelopment.appspot.com"
  },
  "client": [
    {
      "client_info": {
        "mobilesdk_app_id": "1:254759501147:android:bc281e98ba9ef30d8dee7e",
        "android_client_info": {
          "package_name": "com.kisaan"
        }
      },
      "oauth_client": [
        {
          "client_id": "254759501147-h8s9qpj6j0epr4b215rr6ektfjm0d0sc.apps.googleusercontent.com",
          "client_type": 1,
          "android_info": {
            "package_name": "com.kisaan",
            "certificate_hash": "1f90c451f3d656d2a14a4005ee2a57b093c9d794"
          }
        },
        {
          "client_id": "254759501147-386jo7ipns37n3g7v4eue22tdr8ua0iv.apps.googleusercontent.com",
          "client_type": 3
        }
      ],
      "api_key": [
        {
          "current_key": "AIzaSyDVjEgZA7QU7JAQiKL_4mfaCDjCx1-mSAM"
        }
      ],
      "services": {
        "appinvite_service": {
          "other_platform_oauth_client": [
            {
              "client_id": "254759501147-rtomtmf4s69a8dp2fmgrcnbdrudjgeps.apps.googleusercontent.com",
              "client_type": 3
            }
          ]
        }
      }
    }
  ],
  "configuration_version": "1"
}